Task3_3/PWM Variation of 5%/simulation/qsim/pwm_5_variation.msim.vcd
$comment
	File created using the following command:
		vcd file pwm_5_variation.msim.vcd -direction
$end
$date
	Thu Mar 18 10:59:21 2021
$end
$version
	ModelSim Version 10.1d
$end
$timescale
	1ps
$end
$scope module pwm_5_variation_vlg_vec_tst $end
$var reg 1 ! clk $end
$var reg 1 " decrease $end
$var reg 1 # increase $end
$var wire 1 $ out $end
$var wire 1 % sampler $end
$scope module i1 $end
$var wire 1 & gnd $end
$var wire 1 ' vcc $end
$var wire 1 ( unknown $end
$var tri1 1 ) devclrn $end
$var tri1 1 * devpor $end
$var tri1 1 + devoe $end
$var wire 1 , counter[4]~16_combout $end
$var wire 1 - Add1~0_combout $end
$var wire 1 . Add1~4_combout $end
$var wire 1 / Add1~8_combout $end
$var wire 1 0 Add2~6_combout $end
$var wire 1 1 Add2~12_combout $end
$var wire 1 2 clk~combout $end
$var wire 1 3 increase~combout $end
$var wire 1 4 clk~clkctrl_outclk $end
$var wire 1 5 counter[0]~8_combout $end
$var wire 1 6 counter[6]~20_combout $end
$var wire 1 7 LessThan0~0_combout $end
$var wire 1 8 counter[2]~12_combout $end
$var wire 1 9 LessThan0~1_combout $end
$var wire 1 : LessThan0~2_combout $end
$var wire 1 ; counter[0]~9 $end
$var wire 1 < counter[1]~11 $end
$var wire 1 = counter[2]~13 $end
$var wire 1 > counter[3]~14_combout $end
$var wire 1 ? counter[3]~15 $end
$var wire 1 @ counter[4]~17 $end
$var wire 1 A counter[5]~18_combout $end
$var wire 1 B counter[5]~19 $end
$var wire 1 C counter[6]~21 $end
$var wire 1 D counter[7]~22_combout $end
$var wire 1 E decrease~combout $end
$var wire 1 F Add2~1 $end
$var wire 1 G Add2~2_combout $end
$var wire 1 H duty[1]~2_combout $end
$var wire 1 I Add2~0_combout $end
$var wire 1 J Add1~1 $end
$var wire 1 K Add1~2_combout $end
$var wire 1 L Add2~3 $end
$var wire 1 M Add2~4_combout $end
$var wire 1 N Add1~3 $end
$var wire 1 O Add1~5 $end
$var wire 1 P Add1~6_combout $end
$var wire 1 Q Add2~5 $end
$var wire 1 R Add2~7 $end
$var wire 1 S Add2~8_combout $end
$var wire 1 T duty[4]~1_combout $end
$var wire 1 U Add1~7 $end
$var wire 1 V Add1~9 $end
$var wire 1 W Add1~10_combout $end
$var wire 1 X Add2~9 $end
$var wire 1 Y Add2~10_combout $end
$var wire 1 Z duty[5]~0_combout $end
$var wire 1 [ Add1~11 $end
$var wire 1 \ Add1~13 $end
$var wire 1 ] Add1~14_combout $end
$var wire 1 ^ Add1~12_combout $end
$var wire 1 _ Add2~11 $end
$var wire 1 ` Add2~13 $end
$var wire 1 a Add2~14_combout $end
$var wire 1 b counter[1]~10_combout $end
$var wire 1 c LessThan1~1_cout $end
$var wire 1 d LessThan1~3_cout $end
$var wire 1 e LessThan1~5_cout $end
$var wire 1 f LessThan1~7_cout $end
$var wire 1 g LessThan1~9_cout $end
$var wire 1 h LessThan1~11_cout $end
$var wire 1 i LessThan1~13_cout $end
$var wire 1 j LessThan1~14_combout $end
$var wire 1 k duty [7] $end
$var wire 1 l duty [6] $end
$var wire 1 m duty [5] $end
$var wire 1 n duty [4] $end
$var wire 1 o duty [3] $end
$var wire 1 p duty [2] $end
$var wire 1 q duty [1] $end
$var wire 1 r duty [0] $end
$var wire 1 s counter [7] $end
$var wire 1 t counter [6] $end
$var wire 1 u counter [5] $end
$var wire 1 v counter [4] $end
$var wire 1 w counter [3] $end
$var wire 1 x counter [2] $end
$var wire 1 y counter [1] $end
$var wire 1 z counter [0] $end
$upscope $end
$upscope $end
$enddefinitions $end
#0
$dumpvars
1!
0"
0#
1$
x%
0&
1'
x(
1)
1*
1+
0,
0-
0.
1/
00
01
12
03
14
15
06
17
08
19
0:
0;
1<
0=
0>
1?
0@
0A
1B
0C
0D
0E
0F
1G
0H
0I
0J
1K
1L
0M
1N
0O
0P
0Q
1R
1S
0T
1U
0V
1W
0X
1Y
0Z
1[
0\
0]
0^
1_
0`
0a
0b
0c
0d
1e
0f
1g
0h
1i
1j
0r
0q
0p
0o
0n
0m
0l
0k
0z
0y
0x
0w
0v
0u
0t
0s
$end
#250000
0!
02
04
0%
#480000
1"
1E
1%
1a
0_
0Y
1X
0S
0L
0G
1I
11
10
1`
01
1Z
1Y
1T
1M
1H
0a
0Z
#500000
1!
12
14
0%
1n
1p
1r
1q
1z
1o
0/
1.
1-
1d
0K
1;
05
1P
0X
1S
1Q
0M
1F
0I
1L
1G
1b
0R
00
0Y
0T
10
0L
0G
0Q
1M
0H
1X
0S
1Z
1Q
0M
1H
00
1Y
1T
10
0Z
#750000
0!
02
04
1%
#1000000
1!
12
14
0%
1y
0p
0r
0z
0<
0b
0e
0.
0-
0;
15
18
0Q
1M
0F
1I
1<
1b
00
1L
1G
08
0M
0H
#1250000
0!
02
04
1%
#1500000
1!
12
14
0%
1r
0q
1z
0o
1-
1K
09
1;
05
1f
0P
1F
0I
0L
0G
0<
0b
0g
1R
10
1G
1M
1H
18
0X
1S
0H
0Y
0T
1Z
#1750000
0!
02
04
1%
#2000000
1!
12
14
0%
0y
1m
0n
1p
0r
0z
1x
1o
0d
1<
1b
1h
0W
1g
1/
1.
0-
0;
15
1=
08
0f
1P
1e
0=
18
0i
1_
1Y
0h
1X
0S
1Q
0M
0F
1I
0b
1>
0R
00
0>
0j
0`
11
0Z
1i
0_
0Y
1T
10
0G
1S
1a
1j
1`
01
1Z
1H
0T
0$
0a
1$
#2250000
0!
02
04
1%
#2500000
1!
12
14
0%
0p
1r
1q
1z
0e
0.
1-
1d
0K
1;
05
0Q
1M
1F
0I
1L
1G
1b
00
0L
0G
0M
0H
1M
1H
#2750000
0!
02
04
1%
#3000000
1!
12
14
0%
1y
1p
0r
0z
0o
0<
0b
1.
0-
0;
15
1f
0P
1=
08
1Q
0M
0F
1I
1<
1b
1R
10
1>
0R
00
1L
1G
0=
18
0S
1S
0Q
1M
0H
0>
1T
0T
1R
10
0S
1T
#3250000
0!
02
04
1%
#3500000
1!
12
14
0%
1n
1r
0q
1z
1o
0g
0/
1-
1K
1;
05
0f
1P
1h
0X
1S
1F
0I
0L
0G
0<
0b
1g
0R
00
0i
1_
1Y
0T
1G
1Q
0M
1H
1=
08
0h
1X
0S
0j
0`
11
0Z
0H
10
1>
1i
0_
0Y
1T
1a
1j
1`
01
1Z
0$
0a
1$
#3750000
0!
02
04
1%
#4000000
1!
12
14
0%
0y
0p
0r
1w
0z
0x
0d
1<
1b
19
0.
0-
1f
0?
0>
0;
15
0=
18
1e
08
0Q
1M
0F
1I
0g
1,
0b
1?
1>
0f
00
0G
1h
0,
1g
1H
0i
0h
0j
1i
0$
1j
1$
#4250000
0!
02
04
1%
#4500000
1!
12
14
0%
1p
1r
1q
1z
0o
1.
1-
1d
0K
1;
05
1f
0P
1Q
0M
1F
0I
1L
1G
1b
0g
1R
10
0R
00
0L
0G
0Q
1M
0H
1h
0X
1S
1X
0S
1Q
0M
1H
1R
10
0i
1_
1Y
0T
0_
0Y
1T
0R
00
0X
1S
0j
0`
11
0Z
1`
01
1Z
1X
0S
1_
1Y
0T
1a
0$
0a
0_
0Y
1T
0`
11
0Z
1`
01
1Z
1a
0a
#4750000
0!
02
04
1%
#5000000
1!
12
14
0%
1y
0p
0r
0z
0<
0b
0e
0.
0-
0;
15
18
0Q
1M
0F
1I
1<
1b
1R
10
1L
1G
08
0X
1S
0M
0H
1_
1Y
0T
0`
11
0Z
1a
#5040000
0"
0E
1%
0a
0Y
0S
0G
0I
01
00
1Z
1T
1H
#5250000
0!
02
04
0%
#5500000
1!
12
14
1%
1z
09
1;
05
0<
0b
18
#5750000
0!
02
04
0%
#6000000
1!
12
14
1%
0y
0z
1x
1<
1b
0;
15
1=
08
0=
18
0b
0?
0>
1?
1>
1,
0,
#6250000
0!
02
04
0%
#6500000
1!
12
14
1%
1z
1;
05
1b
#6750000
0!
02
04
0%
#7000000
1!
12
14
1%
1y
0z
0<
0b
0;
15
1=
08
1<
1b
0?
0>
0=
18
1,
1?
1>
0,
#7250000
0!
02
04
0%
#7500000
1!
12
14
1%
1z
1;
05
0<
0b
1=
08
0?
0>
1,
#7750000
0!
02
04
0%
#8000000
1!
12
14
1%
0y
0w
0z
0x
1v
1<
1b
19
1?
1>
0;
15
0=
18
1@
0,
08
0@
1,
0b
0>
1A
0A
#8250000
0!
02
04
0%
#8500000
1!
12
14
1%
1z
1;
05
1b
#8750000
0!
02
04
0%
#9000000
1!
12
14
1%
1y
0z
0<
0b
0;
15
18
1<
1b
08
#9250000
0!
02
04
0%
#9500000
1!
12
14
1%
1z
09
1;
05
0<
0b
18
#9750000
0!
02
04
0%
#10000000
1!
12
14
1%
0y
0z
1x
1<
1b
0;
15
1=
08
0=
18
0b
1>
0>
#10250000
0!
02
04
0%
#10500000
1!
12
14
1%
1z
1;
05
1b
#10750000
0!
02
04
0%
#11000000
1!
12
14
1%
1y
0z
0<
0b
0;
15
1=
08
1<
1b
1>
0=
18
0>
#11250000
0!
02
04
0%
#11500000
1!
12
14
1%
1z
1;
05
0<
0b
1=
08
1>
#11750000
0!
02
04
0%
#12000000
1!
12
14
1%
0y
1w
0z
0x
1<
1b
19
0?
0>
0;
15
0=
18
08
1@
0,
0b
1?
1>
1A
0@
1,
0A
#12250000
0!
02
04
0%
#12500000
1!
12
14
1%
1z
1;
05
1b
#12750000
0!
02
04
0%
#13000000
1!
12
14
1%
1y
0z
0<
0b
0;
15
18
1<
1b
08
#13250000
0!
02
04
0%
#13500000
1!
12
14
1%
1z
09
1;
05
0<
0b
18
#13750000
0!
02
04
0%
#14000000
1!
12
14
1%
0y
0z
1x
1<
1b
0;
15
1=
08
0=
18
0b
0?
0>
1?
1>
1@
0,
0@
1,
1A
0A
#14250000
0!
02
04
0%
#14500000
1!
12
14
1%
1z
1;
05
1b
#14750000
0!
02
04
0%
#15000000
1!
12
14
1%
1y
0z
0<
0b
0;
15
1=
08
1<
1b
0?
0>
0=
18
1@
0,
1?
1>
1A
0@
1,
0A
#15250000
0!
02
04
0%
#15500000
1!
12
14
1%
1z
1;
05
0<
0b
1=
08
0?
0>
1@
0,
1A
#15750000
0!
02
04
0%
#16000000
1!
12
14
1%
0y
1u
0w
0z
0x
0v
1<
1b
19
0B
0A
1?
1>
0;
15
0=
18
0@
1,
08
16
0,
0b
0>
1B
1A
06
#16250000
0!
02
04
0%
#16500000
1!
12
14
1%
1z
1;
05
1b
#16750000
0!
02
04
0%
#17000000
1!
12
14
1%
1y
0z
0<
0b
0;
15
18
1<
1b
08
#17250000
0!
02
04
0%
#17500000
1!
12
14
1%
1z
09
1;
05
0<
0b
18
#17750000
0!
02
04
0%
#18000000
1!
12
14
1%
0y
0z
1x
1<
1b
0;
15
1=
08
0=
18
0b
1>
0>
#18250000
0!
02
04
0%
#18500000
1!
12
14
1%
1z
1;
05
1b
#18750000
0!
02
04
0%
#19000000
1!
12
14
1%
1y
0z
0<
0b
0;
15
1=
08
1<
1b
1>
0=
18
0>
#19250000
0!
02
04
0%
#19500000
1!
12
14
1%
1z
1;
05
0<
0b
1=
08
1>
#19750000
0!
02
04
0%
#20000000
1!
12
14
1%
0y
1w
0z
0x
1<
1b
19
0?
0>
0;
15
0=
18
08
1,
0b
1?
1>
0,
#20250000
0!
02
04
0%
#20500000
1!
12
14
1%
1z
1;
05
1b
#20750000
0!
02
04
0%
#21000000
1!
12
14
1%
1y
0z
0<
0b
0;
15
18
1<
1b
08
#21250000
0!
02
04
0%
#21500000
1!
12
14
1%
1z
09
1;
05
0<
0b
18
#21750000
0!
02
04
0%
#22000000
1!
12
14
1%
0y
0z
1x
1<
1b
0;
15
1=
08
0=
18
0b
0?
0>
1?
1>
1,
0,
#22250000
0!
02
04
0%
#22500000
1!
12
14
1%
1z
1;
05
1b
#22750000
0!
02
04
0%
#23000000
1!
12
14
1%
1y
0z
0<
0b
0;
15
1=
08
1<
1b
0?
0>
0=
18
1,
1?
1>
0,
#23250000
0!
02
04
0%
#23500000
1!
12
14
1%
1z
1;
05
0<
0b
1=
08
0?
0>
1,
#23750000
0!
02
04
0%
#24000000
1!
12
14
1%
0y
0w
0z
0x
1v
1<
1b
19
1?
1>
0;
15
0=
18
1@
0,
08
0@
1,
0b
0>
0B
0A
1B
1A
16
06
#24250000
0!
02
04
0%
#24500000
1!
12
14
1%
1z
1;
05
1b
#24750000
0!
02
04
0%
#25000000
1!
12
14
1%
1y
0z
0<
0b
0;
15
18
1<
1b
08
#25250000
0!
02
04
0%
#25500000
1!
12
14
1%
1z
09
1;
05
0<
0b
18
#25750000
0!
02
04
0%
#26000000
1!
12
14
1%
0y
0z
1x
1<
1b
0;
15
1=
08
0=
18
0b
1>
0>
#26250000
0!
02
04
0%
#26500000
1!
12
14
1%
1z
1;
05
1b
#26750000
0!
02
04
0%
#27000000
1!
12
14
1%
1y
0z
0<
0b
0;
15
1=
08
1<
1b
1>
0=
18
0>
#27250000
0!
02
04
0%
#27500000
1!
12
14
1%
1z
1;
05
0<
0b
1=
08
1>
#27750000
0!
02
04
0%
#28000000
1!
12
14
1%
0y
1w
0z
0x
1<
1b
19
0?
0>
0;
15
0=
18
08
1@
0,
0b
1?
1>
0B
0A
0@
1,
16
1B
1A
06
#28250000
0!
02
04
0%
#28500000
1!
12
14
1%
1z
1;
05
1b
#28750000
0!
02
04
0%
#29000000
1!
12
14
1%
1y
0z
0<
0b
0;
15
18
1<
1b
08
#29250000
0!
02
04
0%
#29500000
1!
12
14
1%
1z
09
1;
05
0<
0b
18
#29750000
0!
02
04
0%
#30000000
1!
12
14
1%
0y
0z
1x
1<
1b
0;
15
1=
08
0=
18
0b
0?
0>
1?
1>
1@
0,
0@
1,
0B
0A
1B
1A
16
06
#30250000
0!
02
04
0%
#30500000
1!
12
14
1%
1z
1;
05
1b
#30750000
0!
02
04
0%
#31000000
1!
12
14
1%
1y
0z
0<
0b
0;
15
1=
08
1<
1b
0?
0>
0=
18
1@
0,
1?
1>
0B
0A
0@
1,
16
1B
1A
06
#31250000
0!
02
04
0%
#31500000
1!
12
14
1%
1z
1;
05
0<
0b
1=
08
0?
0>
1@
0,
0B
0A
16
#31750000
0!
02
04
0%
#32000000
1!
12
14
1%
0y
0u
0w
0z
0x
1t
0v
1<
1b
19
1B
1A
1?
1>
0;
15
0=
18
1C
06
0@
1,
08
0C
16
0,
0b
0>
1D
0A
0D
#32250000
0!
02
04
0%
#32500000
1!
12
14
1%
1z
1;
05
1b
#32750000
0!
02
04
0%
#33000000
1!
12
14
1%
1y
0z
0<
0b
0;
15
18
1<
1b
08
#33250000
0!
02
04
0%
#33500000
1!
12
14
1%
1z
09
1;
05
0<
0b
18
#33750000
0!
02
04
0%
#34000000
1!
12
14
1%
0y
0z
1x
1<
1b
0;
15
1=
08
0=
18
0b
1>
0>
#34250000
0!
02
04
0%
#34500000
1!
12
14
1%
1z
1;
05
1b
#34750000
0!
02
04
0%
#35000000
1!
12
14
1%
1y
0z
0<
0b
0;
15
1=
08
1<
1b
1>
0=
18
0>
#35250000
0!
02
04
0%
#35500000
1!
12
14
1%
1z
1;
05
0<
0b
1=
08
1>
#35750000
0!
02
04
0%
#36000000
1!
12
14
1%
0y
1w
0z
0x
1<
1b
19
0?
0>
0;
15
0=
18
08
1,
0b
1?
1>
0,
#36250000
0!
02
04
0%
#36500000
1!
12
14
1%
1z
1;
05
1b
#36750000
0!
02
04
0%
#37000000
1!
12
14
1%
1y
0z
0<
0b
0;
15
18
1<
1b
08
#37250000
0!
02
04
0%
#37500000
1!
12
14
1%
1z
09
1;
05
0<
0b
18
#37750000
0!
02
04
0%
#38000000
1!
12
14
1%
0y
0z
1x
1<
1b
0;
15
1=
08
0=
18
0b
0?
0>
1?
1>
1,
0,
#38250000
0!
02
04
0%
#38500000
1!
12
14
1%
1z
1;
05
1b
#38750000
0!
02
04
0%
#39000000
1!
12
14
1%
1y
0z
0<
0b
0;
15
1=
08
1<
1b
0?
0>
0=
18
1,
1?
1>
0,
#39250000
0!
02
04
0%
#39500000
1!
12
14
1%
1z
1;
05
0<
0b
1=
08
0?
0>
1,
#39750000
0!
02
04
0%
#40000000
1!
12
14
1%
0y
0w
0z
0x
1v
1<
1b
19
1?
1>
0;
15
0=
18
1@
0,
08
0@
1,
0b
0>
1A
0A
#40250000
0!
02
04
0%
#40500000
1!
12
14
1%
1z
1;
05
1b
#40750000
0!
02
04
0%
#41000000
1!
12
14
1%
1y
0z
0<
0b
0;
15
18
1<
1b
08
#41250000
0!
02
04
0%
#41500000
1!
12
14
1%
1z
09
1;
05
0<
0b
18
#41750000
0!
02
04
0%
#42000000
1!
12
14
1%
0y
0z
1x
1<
1b
0;
15
1=
08
0=
18
0b
1>
0>
#42250000
0!
02
04
0%
#42500000
1!
12
14
1%
1z
1;
05
1b
#42750000
0!
02
04
0%
#43000000
1!
12
14
1%
1y
0z
0<
0b
0;
15
1=
08
1<
1b
1>
0=
18
0>
#43250000
0!
02
04
0%
#43500000
1!
12
14
1%
1z
1;
05
0<
0b
1=
08
1>
#43750000
0!
02
04
0%
#44000000
1!
12
14
1%
0y
1w
0z
0x
1<
1b
19
0?
0>
0;
15
0=
18
08
1@
0,
0b
1?
1>
1A
0@
1,
0A
#44250000
0!
02
04
0%
#44500000
1!
12
14
1%
1z
1;
05
1b
#44750000
0!
02
04
0%
#45000000
1!
12
14
1%
1y
0z
0<
0b
0;
15
18
1<
1b
08
#45250000
0!
02
04
0%
#45500000
1!
12
14
1%
1z
09
1;
05
0<
0b
18
#45750000
0!
02
04
0%
#46000000
1!
12
14
1%
0y
0z
1x
1<
1b
0;
15
1=
08
0=
18
0b
0?
0>
1?
1>
1@
0,
0@
1,
1A
0A
#46250000
0!
02
04
0%
#46500000
1!
12
14
1%
1z
1;
05
1b
#46750000
0!
02
04
0%
#47000000
1!
12
14
1%
1y
0z
0<
0b
0;
15
1=
08
1<
1b
0?
0>
0=
18
1@
0,
1?
1>
1A
0@
1,
0A
#47250000
0!
02
04
0%
#47500000
1!
12
14
1%
1z
1;
05
0<
0b
1=
08
0?
0>
1@
0,
1A
#47750000
0!
02
04
0%
#48000000
1!
12
14
1%
0y
1u
0w
0z
0x
0v
1<
1b
19
0B
0A
07
1?
1>
0;
15
0=
18
0@
1,
08
1C
06
0,
0b
0>
1B
1A
1D
0C
16
0D
#48250000
0!
02
04
0%
#48500000
1!
12
14
1%
1z
1;
05
1b
#48750000
0!
02
04
0%
#49000000
1!
12
14
1%
1y
0z
0<
0b
0;
15
18
1<
1b
08
#49250000
0!
02
04
0%
#49500000
1!
12
14
1%
1z
09
1;
05
1:
0<
0b
18
#49750000
0!
02
04
0%
#50000000
1!
12
14
1%
0y
0u
0z
0t
1<
1b
19
0A
17
0;
15
06
08
0:
0b
#50250000
0!
02
04
0%
#50500000
1!
12
14
1%
1z
1;
05
1b
#50750000
0!
02
04
0%
#51000000
1!
12
14
1%
1y
0z
0<
0b
0;
15
18
1<
1b
08
#51250000
0!
02
04
0%
#51500000
1!
12
14
1%
1z
09
1;
05
0<
0b
18
#51750000
0!
02
04
0%
#52000000
1!
12
14
1%
0y
0z
1x
1<
1b
0;
15
1=
08
0=
18
0b
1>
0>
#52250000
0!
02
04
0%
#52500000
1!
12
14
1%
1z
1;
05
1b
#52750000
0!
02
04
0%
#53000000
1!
12
14
1%
1y
0z
0<
0b
0;
15
1=
08
1<
1b
1>
0=
18
0>
#53250000
0!
02
04
0%
#53500000
1!
12
14
1%
1z
1;
05
0<
0b
1=
08
1>
#53750000
0!
02
04
0%
#54000000
1!
12
14
1%
0y
1w
0z
0x
1<
1b
19
0?
0>
0;
15
0=
18
08
1,
0b
1?
1>
0,
#54250000
0!
02
04
0%
#54500000
1!
12
14
1%
1z
1;
05
1b
#54750000
0!
02
04
0%
#55000000
1!
12
14
1%
1y
0z
0<
0b
0;
15
18
1<
1b
08
#55250000
0!
02
04
0%
#55500000
1!
12
14
1%
1z
09
1;
05
0<
0b
18
#55750000
0!
02
04
0%
#56000000
1!
12
14
1%
0y
0z
1x
1<
1b
0;
15
1=
08
0=
18
0b
0?
0>
1?
1>
1,
0,
#56250000
0!
02
04
0%
#56500000
1!
12
14
1%
1z
1;
05
1b
#56750000
0!
02
04
0%
#57000000
1!
12
14
1%
1y
0z
0<
0b
0;
15
1=
08
1<
1b
0?
0>
0=
18
1,
1?
1>
0,
#57250000
0!
02
04
0%
#57500000
1!
12
14
1%
1z
1;
05
0<
0b
1=
08
0?
0>
1,
#57750000
0!
02
04
0%
#58000000
1!
12
14
1%
0y
0w
0z
0x
1v
1<
1b
19
1?
1>
0;
15
0=
18
1@
0,
08
0@
1,
0b
0>
1A
0A
#58250000
0!
02
04
0%
#58500000
1!
12
14
1%
1z
1;
05
1b
#58750000
0!
02
04
0%
#59000000
1!
12
14
1%
1y
0z
0<
0b
0;
15
18
1<
1b
08
#59250000
0!
02
04
0%
#59500000
1!
12
14
1%
1z
09
1;
05
0<
0b
18
#59750000
0!
02
04
0%
#60000000
1!
12
14
1%
0y
0z
1x
1<
1b
0;
15
1=
08
0=
18
0b
1>
0>
#60250000
0!
02
04
0%
#60500000
1!
12
14
1%
1z
1;
05
1b
#60750000
0!
02
04
0%
#61000000
1!
12
14
1%
1y
0z
0<
0b
0;
15
1=
08
1<
1b
1>
0=
18
0>
#61250000
0!
02
04
0%
#61500000
1!
12
14
1%
1z
1;
05
0<
0b
1=
08
1>
#61750000
0!
02
04
0%
#62000000
1!
12
14
1%
0y
1w
0z
0x
1<
1b
19
0?
0>
0;
15
0=
18
08
1@
0,
0b
1?
1>
1A
0@
1,
0A
#62250000
0!
02
04
0%
#62500000
1!
12
14
1%
1z
1;
05
1b
#62750000
0!
02
04
0%
#63000000
1!
12
14
1%
1y
0z
0<
0b
0;
15
18
1<
1b
08
#63250000
0!
02
04
0%
#63500000
1!
12
14
1%
1z
09
1;
05
0<
0b
18
#63750000
0!
02
04
0%
#64000000
1!
12
14
1%
0y
0z
1x
1<
1b
0;
15
1=
08
0=
18
0b
0?
0>
1?
1>
1@
0,
0@
1,
1A
0A
#64250000
0!
02
04
0%
#64500000
1!
12
14
1%
1z
1;
05
1b
#64750000
0!
02
04
0%
#65000000
1!
12
14
1%
1y
0z
0<
0b
0;
15
1=
08
1<
1b
0?
0>
0=
18
1@
0,
1?
1>
1A
0@
1,
0A
#65250000
0!
02
04
0%
#65500000
1!
12
14
1%
1z
1;
05
0<
0b
1=
08
0?
0>
1@
0,
1A
#65750000
0!
02
04
0%
#66000000
1!
12
14
1%
0y
1u
0w
0z
0x
0v
1<
1b
19
0B
0A
1?
1>
0;
15
0=
18
0@
1,
08
16
0,
0b
0>
1B
1A
06
#66250000
0!
02
04
0%
#66500000
1!
12
14
1%
1z
1;
05
1b
#66750000
0!
02
04
0%
#67000000
1!
12
14
1%
1y
0z
0<
0b
0;
15
18
1<
1b
08
#67250000
0!
02
04
0%
#67500000
1!
12
14
1%
1z
09
1;
05
0<
0b
18
#67750000
0!
02
04
0%
#68000000
1!
12
14
1%
0y
0z
1x
1<
1b
0;
15
1=
08
0=
18
0b
1>
0>
#68250000
0!
02
04
0%
#68500000
1!
12
14
1%
1z
1;
05
1b
#68750000
0!
02
04
0%
#69000000
1!
12
14
1%
1y
0z
0<
0b
0;
15
1=
08
1<
1b
1>
0=
18
0>
#69250000
0!
02
04
0%
#69500000
1!
12
14
1%
1z
1;
05
0<
0b
1=
08
1>
#69750000
0!
02
04
0%
#70000000
1!
12
14
1%
0y
1w
0z
0x
1<
1b
19
0?
0>
0;
15
0=
18
08
1,
0b
1?
1>
0,
#70250000
0!
02
04
0%
#70500000
1!
12
14
1%
1z
1;
05
1b
#70750000
0!
02
04
0%
#71000000
1!
12
14
1%
1y
0z
0<
0b
0;
15
18
1<
1b
08
#71250000
0!
02
04
0%
#71500000
1!
12
14
1%
1z
09
1;
05
0<
0b
18
#71750000
0!
02
04
0%
#72000000
1!
12
14
1%
0y
0z
1x
1<
1b
0;
15
1=
08
0=
18
0b
0?
0>
1?
1>
1,
0,
#72250000
0!
02
04
0%
#72500000
1!
12
14
1%
1z
1;
05
1b
#72750000
0!
02
04
0%
#73000000
1!
12
14
1%
1y
0z
0<
0b
0;
15
1=
08
1<
1b
0?
0>
0=
18
1,
1?
1>
0,
#73250000
0!
02
04
0%
#73500000
1!
12
14
1%
1z
1;
05
0<
0b
1=
08
0?
0>
1,
#73750000
0!
02
04
0%
#74000000
1!
12
14
1%
0y
0w
0z
0x
1v
1<
1b
19
1?
1>
0;
15
0=
18
1@
0,
08
0@
1,
0b
0>
0B
0A
1B
1A
16
06
#74250000
0!
02
04
0%
#74500000
1!
12
14
1%
1z
1;
05
1b
#74750000
0!
02
04
0%
#75000000
1!
12
14
1%
1y
0z
0<
0b
0;
15
18
1<
1b
08
#75250000
0!
02
04
0%
#75500000
1!
12
14
1%
1z
09
1;
05
0<
0b
18
#75750000
0!
02
04
0%
#76000000
1!
12
14
1%
0y
0z
1x
1<
1b
0;
15
1=
08
0=
18
0b
1>
0>
#76250000
0!
02
04
0%
#76500000
1!
12
14
1%
1z
1;
05
1b
#76750000
0!
02
04
0%
#77000000
1!
12
14
1%
1y
0z
0<
0b
0;
15
1=
08
1<
1b
1>
0=
18
0>
#77250000
0!
02
04
0%
#77500000
1!
12
14
1%
1z
1;
05
0<
0b
1=
08
1>
#77750000
0!
02
04
0%
#78000000
1!
12
14
1%
0y
1w
0z
0x
1<
1b
19
0?
0>
0;
15
0=
18
08
1@
0,
0b
1?
1>
0B
0A
0@
1,
16
1B
1A
06
#78250000
0!
02
04
0%
#78500000
1!
12
14
1%
1z
1;
05
1b
#78750000
0!
02
04
0%
#79000000
1!
12
14
1%
1y
0z
0<
0b
0;
15
18
1<
1b
08
#79250000
0!
02
04
0%
#79500000
1!
12
14
1%
1z
09
1;
05
0<
0b
18
#79750000
0!
02
04
0%
#80000000
1!
12
14
1%
0y
0z
1x
1<
1b
0;
15
1=
08
0=
18
0b
0?
0>
1?
1>
1@
0,
0@
1,
0B
0A
1B
1A
16
06
#80250000
0!
02
04
0%
#80500000
1!
12
14
1%
1z
1;
05
1b
#80750000
0!
02
04
0%
#81000000
1!
12
14
1%
1y
0z
0<
0b
0;
15
1=
08
1<
1b
0?
0>
0=
18
1@
0,
1?
1>
0B
0A
0@
1,
16
1B
1A
06
#81250000
0!
02
04
0%
#81500000
1!
12
14
1%
1z
1;
05
0<
0b
1=
08
0?
0>
1@
0,
0B
0A
16
#81750000
0!
02
04
0%
#82000000
1!
12
14
1%
0y
0u
0w
0z
0x
1t
0v
1<
1b
19
1B
1A
1?
1>
0;
15
0=
18
1C
06
0@
1,
08
0C
16
0,
0b
0>
1D
0A
0D
#82250000
0!
02
04
0%
#82500000
1!
12
14
1%
1z
1;
05
1b
#82750000
0!
02
04
0%
#83000000
1!
12
14
1%
1y
0z
0<
0b
0;
15
18
1<
1b
08
#83250000
0!
02
04
0%
#83500000
1!
12
14
1%
1z
09
1;
05
0<
0b
18
#83750000
0!
02
04
0%
#84000000
1!
12
14
1%
0y
0z
1x
1<
1b
0;
15
1=
08
0=
18
0b
1>
0>
#84250000
0!
02
04
0%
#84500000
1!
12
14
1%
1z
1;
05
1b
#84750000
0!
02
04
0%
#85000000
1!
12
14
1%
1y
0z
0<
0b
0;
15
1=
08
1<
1b
1>
0=
18
0>
#85250000
0!
02
04
0%
#85500000
1!
12
14
1%
1z
1;
05
0<
0b
1=
08
1>
#85750000
0!
02
04
0%
#86000000
1!
12
14
1%
0y
1w
0z
0x
1<
1b
19
0?
0>
0;
15
0=
18
08
1,
0b
1?
1>
0,
#86250000
0!
02
04
0%
#86500000
1!
12
14
1%
1z
1;
05
1b
#86750000
0!
02
04
0%
#87000000
1!
12
14
1%
1y
0z
0<
0b
0;
15
18
1<
1b
08
#87250000
0!
02
04
0%
#87500000
1!
12
14
1%
1z
09
1;
05
0<
0b
18
#87750000
0!
02
04
0%
#88000000
1!
12
14
1%
0y
0z
1x
1<
1b
0;
15
1=
08
0=
18
0b
0?
0>
1?
1>
1,
0,
#88250000
0!
02
04
0%
#88500000
1!
12
14
1%
1z
1;
05
1b
#88750000
0!
02
04
0%
#89000000
1!
12
14
1%
1y
0z
0<
0b
0;
15
1=
08
1<
1b
0?
0>
0=
18
1,
1?
1>
0,
#89250000
0!
02
04
0%
#89500000
1!
12
14
1%
1z
1;
05
0<
0b
1=
08
0?
0>
1,
#89750000
0!
02
04
0%
#90000000
1!
12
14
1%
0y
0w
0z
0x
1v
1<
1b
19
1?
1>
0;
15
0=
18
1@
0,
08
0@
1,
0b
0>
1A
0A
#90250000
0!
02
04
0%
#90500000
1!
12
14
1%
1z
1;
05
1b
#90750000
0!
02
04
0%
#91000000
1!
12
14
1%
1y
0z
0<
0b
0;
15
18
1<
1b
08
#91250000
0!
02
04
0%
#91500000
1!
12
14
1%
1z
09
1;
05
0<
0b
18
#91750000
0!
02
04
0%
#92000000
1!
12
14
1%
0y
0z
1x
1<
1b
0;
15
1=
08
0=
18
0b
1>
0>
#92250000
0!
02
04
0%
#92500000
1!
12
14
1%
1z
1;
05
1b
#92750000
0!
02
04
0%
#93000000
1!
12
14
1%
1y
0z
0<
0b
0;
15
1=
08
1<
1b
1>
0=
18
0>
#93250000
0!
02
04
0%
#93500000
1!
12
14
1%
1z
1;
05
0<
0b
1=
08
1>
#93750000
0!
02
04
0%
#94000000
1!
12
14
1%
0y
1w
0z
0x
1<
1b
19
0?
0>
0;
15
0=
18
08
1@
0,
0b
1?
1>
1A
0@
1,
0A
#94250000
0!
02
04
0%
#94500000
1!
12
14
1%
1z
1;
05
1b
#94750000
0!
02
04
0%
